PWD /Users/Robert/repos/groupgroup/dp
INPUT /usr/local/texlive/2015basic/texmf-dist/metapost/base/mfplain.mp
OUTPUT font.log
INPUT ./font.mf
INPUT ./modules/module_loader.mf
INPUT ./modules/bootstrap.mf
INPUT ./modules/helpers.mf
INPUT ./modules/upper_case.mf
INPUT /usr/local/texlive/2015basic/texmf-dist/fonts/tfm/public/cm/cmr10.tfm
OUTPUT font.65
OUTPUT font.66
OUTPUT font.67
OUTPUT font.68
OUTPUT font.69
OUTPUT font.70
OUTPUT font.71
OUTPUT font.72
OUTPUT font.73
OUTPUT font.74
OUTPUT font.75
OUTPUT font.76
OUTPUT font.77
OUTPUT font.78
OUTPUT font.79
OUTPUT font.80
OUTPUT font.81
OUTPUT font.82
OUTPUT font.83
OUTPUT font.84
OUTPUT font.85
OUTPUT font.86
OUTPUT font.87
OUTPUT font.88
OUTPUT font.89
OUTPUT font.90
INPUT ./modules/lower_case.mf
OUTPUT font.97
OUTPUT font.98
OUTPUT font.99
OUTPUT font.100
OUTPUT font.101
OUTPUT font.102
OUTPUT font.103
OUTPUT font.104
OUTPUT font.105
OUTPUT font.106
OUTPUT font.107
OUTPUT font.108
OUTPUT font.109
OUTPUT font.110
OUTPUT font.111
OUTPUT font.112
OUTPUT font.113
OUTPUT font.114
OUTPUT font.115
OUTPUT font.116
OUTPUT font.117
OUTPUT font.118
OUTPUT font.119
OUTPUT font.120
OUTPUT font.121
OUTPUT font.122
INPUT ./modules/numbers.mf
OUTPUT font.48
OUTPUT font.49
OUTPUT font.50
OUTPUT font.51
OUTPUT font.52
OUTPUT font.53
OUTPUT font.54
OUTPUT font.55
OUTPUT font.56
OUTPUT font.57
INPUT ./modules/punctuation.mf
OUTPUT font.46
INPUT ./modules/spacing.mf
